{
  "owner": "obsidiansystems",
  "repo": "ledger-app-tezos",
  "branch": "develop",
  "rev": "780449afcdabfd558210f94f634f107c275a0e82",
  "sha256": "1c9v85vxznrz5xq2v5f7gbrr1r3da9i4wkw8qhh25mlqji344mwb"
}
